<svg xmlns="http://www.w3.org/2000/svg" width="16.221" height="16.221" viewBox="0 0 16.221 16.221">
  <g id="Icon_feather-info" data-name="Icon feather-info" transform="translate(-2.5 -2.5)">
    <path id="Path_37879" data-name="Path 37879" d="M18.221,10.61A7.61,7.61,0,1,1,10.61,3,7.61,7.61,0,0,1,18.221,10.61Z" fill="none" stroke="#023047" stroke-linecap="round" stroke-linejoin="round" stroke-width="1"/>
    <path id="Path_37880" data-name="Path 37880" d="M18,21.044V18" transform="translate(-7.39 -7.39)" fill="none" stroke="#023047" stroke-linecap="round" stroke-linejoin="round" stroke-width="1"/>
    <path id="Path_37881" data-name="Path 37881" d="M18,12h0" transform="translate(-7.39 -4.434)" fill="none" stroke="#023047" stroke-linecap="round" stroke-linejoin="round" stroke-width="1"/>
  </g>
</svg>
