<svg xmlns="http://www.w3.org/2000/svg" width="7.26" height="11.989" viewBox="0 0 7.26 11.989">
  <path id="Path_37812" data-name="Path 37812" d="M-615.608,944.377l1.755,1.789V937.1h1.591v9.019l1.744-1.752,1.1,1.1-3.623,3.622-3.637-3.647Z" transform="translate(616.68 -937.104)" fill="#023047"/>
</svg>
